{
	"radarr_api_key": "ENC[AES256_GCM,data:Ki00O4czoVfcM9ksqCyUVyxjVXOmQVigoFiV75WRFWQ=,iv:aDQWDLC3kPKD2lROV4V4Jg6m4Cr4LNNdwtToiNCc72U=,tag:VQ/blAiCUB4pkYScnWgFHQ==,type:str]",
	"sonarr_api_key": "ENC[AES256_GCM,data:xEwE9hMgXZAm8f/ExfghdypMWBV9STBIgGYW831f18Q=,iv:JejvWYkqY95uvdaRqt0wIcTRkgs5ZjYkcAQM0OXMyuM=,tag:J5EsqQ6J8UXqdZDA1qAR9w==,type:str]",
	"prowlarr_api_key": "ENC[AES256_GCM,data:NcTiyil3fYVJvpuexsAzMdVafkRKt9y76fX7v6cpWPQ=,iv:HdQApQocpMLwAH7yAFVpTdfYrQsUx6gHk/a6h4vZxGQ=,tag:LEmyXQnbeWQa0UhqCRtemg==,type:str]",
	"traefik_basic_auth_user": "ENC[AES256_GCM,data:/tmTMlYV,iv:ijXJJsEFh/q7124/iZJcN0Xw90rhXs8HcTOdBmHGN0I=,tag:XZQ2mWcZz6D2K4ZbXHuVjw==,type:str]",
	"traefik_basic_auth_password": "ENC[AES256_GCM,data:X+wOjZWiNvuj7rY=,iv:BwudvARL8kyRJTRx7+23IbiCUZVqsys11Q6aNx5Ld9o=,tag:zoigGBApqWtmLMhA3C1i6A==,type:str]",
	"google_cloudflare_oauth_client_id": "ENC[AES256_GCM,data:z4tZM5sRYpiNbSYqfr3eM4mGm9CBmgYHhPzvzBmRh55PSZJxsUoI7ojGzOnvhyPXo9iqVnfLw45xjZv82KSqVrEv4pc6Spqi,iv:R8fY/QZEtXOqIAnbCpL0Rje25MWcM4khUgbW9lHbwa8=,tag:G/1VnFZPioERcFb2RAVk7w==,type:str]",
	"google_cloudflare_oauth_client_secret": "ENC[AES256_GCM,data:ILqbHfRyDSjtNJxZqoFnG8uowPHf7asWiMtJTw1FP+OkG7Y=,iv:3JC/NBRt83QHa9GSo7ZvSZPJ4doOCgTgsvqNXjWX1aQ=,tag:3whg/ceP/pIw9mTMGtCeuA==,type:str]",
	"gitlab_kubernetes_agent_token": "ENC[AES256_GCM,data:rMhn1sy7ZosBz6jHeCS0EO4SpvE9ZYABuld7FqYlIskB9epjm2O6t0twKF0iar5dONQ=,iv:CDr69f13XAOIXYkvY6XRInqY2FfHmGZ0qhJayW4UxmU=,tag:CbWiCyziVyAxgkRs6ADdHw==,type:str]",
	"cloudflare_api_key": "ENC[AES256_GCM,data:j9+ZSNazqAA1JxwniX+m21XpaL3fkebRiyo2A/RhC7s5U2NdZw==,iv:tOKHDs5PeYeeRAm4O/9uvRiWtKyu09YBnBELF7oRLOE=,tag:5JoQFasD71fkvB/D/ibYJQ==,type:str]",
	"sops": {
		"kms": null,
		"gcp_kms": null,
		"azure_kv": null,
		"hc_vault": null,
		"age": [
			{
				"recipient": "age1ps7udxc7ssfk3cmnaj0qd5q0jyrxjhfm8capxue0whdaee424d8q3w0dp9",
				"enc": "-----BEGIN AGE ENCRYPTED FILE-----\nYWdlLWVuY3J5cHRpb24ub3JnL3YxCi0+IFgyNTUxOSBuRGIzVmxiTVgxZlFWU3Iy\nTlhJYTgvRk1mTnU3ZDlpY3JKU0owcTVicmpvCkFPZUlHaGtzSCt5aUVKdm1wUCtN\nRlQ2Q0Yxd2pIQnA3TnJneTMzM0tnam8KLS0tIDhIalRXeEdxZXR1VExPMmxybWpG\nd0hSQ3I2S0pndW8xMkE5emhUK3pxaEkKLtG0pjs/ntmNRtcRmxNpzN6hlxz6E09M\nJP4DqbGZLytcd0B+IBTztRm/43G6L60Yv+q/uBDMbIaySgOTwHMLOw==\n-----END AGE ENCRYPTED FILE-----\n"
			}
		],
		"lastmodified": "2023-01-22T14:29:33Z",
		"mac": "ENC[AES256_GCM,data:0MJxT5hxfZZBPfrq+qvCS59jw0pFAsS2gHuMXXxRr6qh5WfsRiTIXlDDZkUX225n9ZyS/470QL/C0UutrMLMdsnt35GxuM10XaegO0dkSEXkKC1DfCe5NTsrfpe+zGSUaOLf+TsAnaQira/UHdC9J40pB8ljO8FDvMHnT0XFeaw=,iv:Q8xdib2bXlN0nth4aaamGOdjSias6b2w8mHeCQp/TAo=,tag:wwaWuuohsl2W/hM6gM93Pw==,type:str]",
		"pgp": null,
		"unencrypted_suffix": "_unencrypted",
		"version": "3.7.3"
	}
}
